set terminal epslatex color 
set output "figs/equilibre_court_archisim.tex"

set size 1.0,1.0

set xrange [0:80]
set yrange [0:30]

min(x,y) = (x < y) ? x : y

set xlabel "$\\Delta x$ ($m$)"
set ylabel "$\\dot{x}$ ($m/s$)"

set label "Contrainte stable" at 15,9 rotate by 43
set label "r\\'egime libre"     at 55,24
set label "Contrainte courte"   at 5,11 rotate by 70


plot min(x / (0.7*0.28 + (2.5*(1-0.28))), 25) with line ls 1 lw 1 title "\\'Etats stables",\
	min(x / 0.7, 25) with line ls 2 lw 4 title "Attracteur temporaire"
